<svg xmlns="http://www.w3.org/2000/svg" viewBox="0 0 159.9 165.9">
    <defs>
        <style>.cls-1{fill:#fff;}</style>
    </defs>
    <title>Ресурс 1</title>
    <g id="Слой_2" data-name="Слой 2">
        <g id="Слой_1-2" data-name="Слой 1">
            <path class="cls-1" d="M159.9,55.9H48.2S40,28.7,35.6,14.4C33.3,7.2,30.8,0,23,0H0V14.4H15.1c9.8,0,9.8,8.1,11.2,12.6s27.4,95.5,27.4,95.5h91.8ZM62.3,110,53.7,68.5h91.8L138.3,110Zm27.4,40a15.8,15.8,0,1,0-15.8,15.9A15.86,15.86,0,0,0,89.7,150Zm15.1,0a15.8,15.8,0,1,0,15.8-15.9A15.86,15.86,0,0,0,104.8,150Z"/>
        </g>
    </g>
</svg>