<?xml version="1.0" encoding="utf-8"?>
<!-- Generator: Adobe Illustrator 22.1.0, SVG Export Plug-In . SVG Version: 6.00 Build 0)  -->
<svg version="1.1" id="Слой_1" xmlns="http://www.w3.org/2000/svg" xmlns:xlink="http://www.w3.org/1999/xlink" x="0px" y="0px"
	 viewBox="0 0 330.6 503.3" style="enable-background:new 0 0 330.6 503.3;" xml:space="preserve">
<style type="text/css">
	.st0{fill:#fff;}
</style>
<g>
	<g>
		<path class="st0" d="M15.4,258c8-8,16.1-16.1,24.1-24.1c19.3-19.3,38.6-38.6,57.9-57.9c23.4-23.4,46.7-46.7,70.1-70.1
			c20.2-20.2,40.4-40.4,60.6-60.6c6.6-6.6,13.3-13.3,19.9-19.9c3.1-3.1,6.8-6.1,9.6-9.6c0.1-0.2,0.3-0.3,0.4-0.4
			c-4.2,0-8.5,0-12.7,0c20.4,20.4,40.8,40.8,61.2,61.2c2.9,2.9,5.8,5.8,8.8,8.8c0-4.2,0-8.5,0-12.7c-19.4,19.4-38.8,38.8-58.3,58.3
			c-31.1,31.1-62.2,62.2-93.2,93.2c-7.1,7.1-14.2,14.2-21.3,21.3c-3.4,3.4-3.4,9.3,0,12.7c19.4,19.4,38.8,38.8,58.3,58.3
			c31.1,31.1,62.2,62.2,93.2,93.2c7.1,7.1,14.2,14.2,21.3,21.3c0-4.2,0-8.5,0-12.7c-20.4,20.4-40.8,40.8-61.2,61.2
			c-2.9,2.9-5.8,5.8-8.8,8.8c4.2,0,8.5,0,12.7,0c-8-8-16.1-16.1-24.1-24.1c-19.3-19.3-38.6-38.6-57.9-57.9
			c-23.4-23.4-46.7-46.7-70.1-70.1c-20.2-20.2-40.4-40.4-60.6-60.6c-9.8-9.8-19.3-20.1-29.5-29.5c-0.1-0.1-0.3-0.3-0.4-0.4
			c-8.2-8.2-20.9,4.5-12.7,12.7c8,8,16.1,16.1,24.1,24.1c19.3,19.3,38.6,38.6,57.9,57.9c23.4,23.4,46.7,46.7,70.1,70.1
			c20.2,20.2,40.4,40.4,60.6,60.6c9.8,9.8,19.3,20.1,29.5,29.5c0.1,0.1,0.3,0.3,0.4,0.4c3.4,3.4,9.3,3.4,12.7,0
			c20.4-20.4,40.8-40.8,61.2-61.2c2.9-2.9,5.8-5.8,8.8-8.8c3.4-3.4,3.4-9.3,0-12.7c-19.4-19.4-38.8-38.8-58.3-58.3
			c-31.1-31.1-62.2-62.2-93.2-93.2c-7.1-7.1-14.2-14.2-21.3-21.3c0,4.2,0,8.5,0,12.7c19.4-19.4,38.8-38.8,58.3-58.3
			c31.1-31.1,62.2-62.2,93.2-93.2c7.1-7.1,14.2-14.2,21.3-21.3c3.4-3.4,3.4-9.3,0-12.7c-20.4-20.4-40.8-40.8-61.2-61.2
			c-2.9-2.9-5.8-5.8-8.8-8.8c-3.4-3.4-9.3-3.4-12.7,0c-8,8-16.1,16.1-24.1,24.1c-19.3,19.3-38.6,38.6-57.9,57.9
			c-23.4,23.4-46.7,46.7-70.1,70.1C73,175,52.8,195.2,32.6,215.4c-9.8,9.8-20.1,19.3-29.5,29.5c-0.1,0.1-0.3,0.3-0.4,0.4
			C-5.6,253.5,7.2,266.2,15.4,258z"/>
	</g>
</g>
</svg>
